{
    "nextId": 7,
    "items": [
        {
            "id": 1,
            "path": "C:\\Users\\Admin\\Documents\\webprogbase\\webprogbase\\labs\\lab3\\data\\media\\1.webp"
        },
        {
            "id": 2,
            "path": "C:\\Users\\Admin\\Documents\\webprogbase\\webprogbase\\labs\\lab3\\data\\media\\2.webp"
        },
        {
            "id": 3,
            "path": "C:\\Users\\Admin\\Documents\\webprogbase\\webprogbase\\labs\\lab3\\data\\media\\3.png"
        }
    ]
}