{
    "nextId": 5,
    "items": [
        {
            "id": 1,
            "name": "Ereshkiga;",
            "role": "Lancer",
            "age": 500,
            "rank": 5,
            "releaseDate": "2019-12-01",
            "picUrl": "f"
        },
        {
            "id": 2,
            "name": "Semeramis",
            "role": "Assasin",
            "age": 30,
            "rank": 5,
            "releaseDate": "2020-06-15",
            "picUrl": "url"
        },
        {
            "id": 3,
            "name": "Tamamo Cat",
            "role": "Berserk",
            "age": 43,
            "rank": 4,
            "releaseDate": "2015-07-30",
            "picUrl": "f"
        }
    ]
}